# 3ds Max Wavefront OBJ Exporter v0.97b - (c)2007 guruware
# File Created: 11.07.2018 08:36:09

#
# object wooden_post_arm
#

v  0.9820 89.7949 37.1230
v  -0.9820 89.7949 37.1230
v  -0.9820 84.1239 43.5728
v  0.9820 84.1239 43.5728
v  -0.9820 78.4529 2.9459
v  0.9820 78.4529 2.9459
v  0.9820 78.4529 37.1230
v  -0.9820 78.4529 37.1230
v  0.9820 84.1238 2.9459
v  0.9820 89.7948 2.9459
v  -0.9820 89.7948 2.9459
v  -0.9820 84.1238 2.9459
# 12 vertices

vn 0.6356 0.7223 0.2724
vn -0.6356 0.7223 0.2724
vn -0.5709 -0.0000 0.8210
vn 0.5709 -0.0000 0.8210
vn -0.5774 -0.5774 -0.5773
vn 0.5774 -0.5774 -0.5773
vn 0.6356 -0.7223 0.2724
vn -0.6356 -0.7223 0.2724
vn 0.7071 -0.0000 -0.7071
vn 0.5774 0.5774 -0.5774
vn -0.5774 0.5774 -0.5774
vn -0.7071 -0.0000 -0.7071
# 12 vertex normals

vt 0.8060 0.4598 0.0000
vt 0.8249 0.4820 0.0000
vt 0.7600 0.5513 0.0000
vt 0.7366 0.5340 0.0000
vt 0.9767 0.0248 0.0000
vt 1.0016 0.0248 0.0000
vt 1.0016 0.4574 0.0000
vt 0.9756 0.4586 0.0000
vt 0.6648 0.0248 0.0000
vt 0.7365 0.0248 0.0000
vt 0.6670 0.4599 0.0000
vt 0.8083 0.0248 0.0000
vt 0.8332 0.0248 0.0000
vt 0.8332 0.4574 0.0000
vt 0.9049 0.0248 0.0000
vt 0.9061 0.5377 0.0000
vt 1.0002 0.4777 0.0000
vt 0.9310 0.5618 0.0000
vt 0.6648 -0.0001 0.0000
vt 0.7365 -0.0001 0.0000
vt 0.8083 -0.0001 0.0000
# 21 texture coords

o wooden_post_arm
g wooden_post_arm
f 1/1/1 2/2/2 3/3/3 4/4/4 
f 5/5/5 6/6/6 7/7/7 8/8/8 
f 6/9/6 9/10/9 4/4/4 7/11/7 
f 10/12/10 11/13/11 2/14/2 1/1/1 
f 11/13/11 12/15/12 3/16/3 2/14/2 
f 3/16/3 8/8/8 7/17/7 4/18/4 
f 9/10/9 10/12/10 1/1/1 4/4/4 
f 12/15/12 5/5/5 8/8/8 3/16/3 
f 9/10/9 6/9/6 5/19/5 12/20/12 
f 10/12/10 9/10/9 12/20/12 11/21/11 
# 10 polygons

