# 3ds Max Wavefront OBJ Exporter v0.97b - (c)2007 guruware
# File Created: 11.07.2018 08:35:53

#
# object wooden_post
#

v  2.9459 0.0000 -2.9459
v  2.9459 0.0000 2.9459
v  -2.9459 0.0000 2.9459
v  -2.9459 0.0000 -2.9459
v  2.9459 92.9512 2.9459
v  2.9459 92.9512 -2.9459
v  -2.9459 92.9512 -2.9459
v  -2.9459 92.9512 2.9459
# 8 vertices

vn 0.5774 -0.5774 -0.5774
vn 0.5774 -0.5774 0.5774
vn -0.5774 -0.5774 0.5774
vn -0.5774 -0.5774 -0.5774
vn 0.5774 0.5774 0.5774
vn 0.5774 0.5774 -0.5774
vn -0.5774 0.5774 -0.5774
vn -0.5774 0.5774 0.5774
# 8 vertex normals

vt 0.5952 0.9848 0.0000
vt 0.5952 0.9035 0.0000
vt 0.5139 0.9035 0.0000
vt 0.5139 0.9848 0.0000
vt 0.1271 0.0005 0.0000
vt 0.1905 0.0005 0.0000
vt 0.1905 0.9995 0.0000
vt 0.1271 0.9995 0.0000
vt 0.0005 0.0005 0.0000
vt 0.0638 0.0005 0.0000
vt 0.0638 0.9995 0.0000
vt 0.0005 0.9995 0.0000
vt 0.2538 0.0005 0.0000
vt 0.2538 0.9995 0.0000
# 14 texture coords

o wooden_post
g wooden_post
f 1/1/1 2/2/2 3/3/3 4/4/4 
f 5/2/5 6/1/6 7/4/7 8/3/8 
f 2/5/2 1/6/1 6/7/6 5/8/5 
f 4/9/4 3/10/3 8/11/8 7/12/7 
f 1/6/1 4/13/4 7/14/7 6/7/6 
f 5/8/5 8/11/8 3/10/3 2/5/2 
# 6 polygons

